note_umap.utf8
…
library(tidyverse)
library(uwot)

palmerpenguinspenguins

NA

dat <- 
  palmerpenguins::penguins %>% 
  na.omit()

dat

## # A tibble: 333 x 8
##    species island bill_length_mm bill_depth_mm flipper_length_ body_mass_g
##    <fct>   <fct>           <dbl>         <dbl>            <int>       <int>
##  1 Adelie  Torge           39.1          18.7              181        3750
##  2 Adelie  Torge           39.5          17.4              186        3800
##  3 Adelie  Torge           40.3          18                195        3250
##  4 Adelie  Torge           36.7          19.3              193        3450
##  5 Adelie  Torge           39.3          20.6              190        3650
##  6 Adelie  Torge           38.9          17.8              181        3625
##  7 Adelie  Torge           39.2          19.6              195        4675
##  8 Adelie  Torge           41.1          17.6              182        3200
##  9 Adelie  Torge           38.6          21.2              191        3800
## 10 Adelie  Torge           34.6          21.1              198        4400
## #  with 323 more rows, and 2 more variables: sex <fct>, year <int>

umap

dat_for_umap <-
  dat %>% 
  select(c(ends_with("_mm"), ends_with("_g"))) %>% 
  mutate_all(~{(. - mean(.))/sd(.)})

dat_for_umap

## # A tibble: 333 x 4
##    bill_length_mm bill_depth_mm flipper_length_mm body_mass_g
##             <dbl>         <dbl>             <dbl>       <dbl>
##  1         -0.895         0.780            -1.42       -0.568
##  2         -0.822         0.119            -1.07       -0.506
##  3         -0.675         0.424            -0.426      -1.19 
##  4         -1.33          1.08             -0.568      -0.940
##  5         -0.858         1.74             -0.782      -0.692
##  6         -0.931         0.323            -1.42       -0.723
##  7         -0.876         1.24             -0.426       0.581
##  8         -0.529         0.221            -1.35       -1.25 
##  9         -0.986         2.05             -0.711      -0.506
## 10         -1.72          2.00             -0.212       0.240
## #  with 323 more rows

Rumap

uwot::umap()

result_umap_r <-
  dat_for_umap %>% 
  umap(n_neighbors = 15,
       n_components = 2) %>%  # 
  as_tibble()

result_umap_r

## # A tibble: 333 x 2
##       V1     V2
##    <dbl>  <dbl>
##  1 -7.21 -0.110
##  2 -8.04  0.546
##  3 -8.02  1.29 
##  4 -5.88  0.156
##  5 -5.42 -0.836
##  6 -7.66  0.337
##  7 -5.75 -2.07 
##  8 -8.27  0.508
##  9 -5.33 -0.888
## 10 -5.36 -0.925
## #  with 323 more rows
…
